<?xml version="1.0" encoding="UTF-8" standalone="no"?>
<svg
   xmlns:dc="http://purl.org/dc/elements/1.1/"
   xmlns:cc="http://creativecommons.org/ns#"
   xmlns:rdf="http://www.w3.org/1999/02/22-rdf-syntax-ns#"
   xmlns:svg="http://www.w3.org/2000/svg"
   xmlns="http://www.w3.org/2000/svg"
   xmlns:sodipodi="http://sodipodi.sourceforge.net/DTD/sodipodi-0.dtd"
   xmlns:inkscape="http://www.inkscape.org/namespaces/inkscape"
   height="512"
   viewBox="0 0 512 512"
   width="512"
   id="svg2"
   version="1.1"
   inkscape:version="0.48.4 r9939"
   sodipodi:docname="Email.svg">
  <metadata
     id="metadata12">
    <rdf:RDF>
      <cc:Work
         rdf:about="">
        <dc:format>image/svg+xml</dc:format>
        <dc:type
           rdf:resource="http://purl.org/dc/dcmitype/StillImage" />
      </cc:Work>
    </rdf:RDF>
  </metadata>
  <defs
     id="defs10" />
  <sodipodi:namedview
     pagecolor="#ffffff"
     bordercolor="#666666"
     borderopacity="1"
     objecttolerance="10"
     gridtolerance="10"
     guidetolerance="10"
     inkscape:pageopacity="0"
     inkscape:pageshadow="2"
     inkscape:window-width="1366"
     inkscape:window-height="711"
     id="namedview8"
     showgrid="false"
     inkscape:zoom="0.65186406"
     inkscape:cx="843.67616"
     inkscape:cy="342.36036"
     inkscape:window-x="-5"
     inkscape:window-y="20"
     inkscape:window-maximized="1"
     inkscape:current-layer="svg2" />
  <rect
     height="512"
     rx="11.661016"
     ry="10.033898"
     width="512"
     id="rect4"
     x="0"
     y="0"
     style="fill:#6b6b6b" />
  <path
     d="M84.4612061 146.0922837c-2.98152108 2.82053627-4.8425682 6.82226322-4.8425682 11.26719494v184.26408652c0 8.54833644 6.7474311 15.47812374 15.42008497 15.47812374h322.7360869c8.516284 0 15.42009113-6.91701243 15.42009113-15.47812374V157.35947864c0-4.45404784-1.8318325-8.46868032-4.81335665-11.29259862L256.4067694 295.6101649 84.4612061 146.0922837zm10.58557677-19.5838098c-17.0109368 0-30.80102597 13.7512542-30.80102597 30.6544517v184.6571972c0 16.92998476 13.6782238 30.6544471 30.80102597 30.6544471H417.7667544c17.01093833 0 30.8010275-13.75125727 30.8010275-30.6544471V157.1629256c0-16.92998628-13.67822072-30.6544517-30.8010275-30.6544517H95.04678286zM256.4067694 275.62560407l153.72881-133.74424917h-307.45762l153.72881 133.74424917z"
     fill="#fff"
     stroke="#fff"
     fill-rule="evenodd"
     stroke-width="15.372881"
     id="path6" />
</svg>
